{
    "data": [
        {
            "latitude": 1.2857211372800634,
            "longitude": 103.84982956837393,
            "name": "McDonald's - Boat Quay"
        },
        {
            "latitude": 1.2863638623268088,
            "longitude": 103.8484098573586,
            "name": "Lucky Cafe - North Canal Road"
        },
        {
            "latitude": 1.2872582456583075,
            "longitude": 103.84894450942261,
            "name": "New Shah Alam Restaurant - Circular Road"
        },
        {
            "latitude": 1.2870431684137031,
            "longitude": 103.8537286643413,
            "name": "SF Farm Mart - The Fullerton Waterboat House"
        },
        {
            "latitude": 1.28755892,
            "longitude": 103.84858,
            "name": "Drinifini - 37A South Bridge Road [Islandwide Delivery]"
        },
        {
            "latitude": 1.286957,
            "longitude": 103.848953,
            "name": "Lal QIla quality authentic curry and biryani and kebab Indian flavors"
        },
        {
            "latitude": 1.2872400522826946,
            "longitude": 103.8490997835754,
            "name": "Chennai Food Junction - Circular Road"
        },
        {
            "latitude": 1.286957,
            "longitude": 103.848953,
            "name": "The Biryani Multi-cuisine @Central Singapore, Authentic Hydrabadi Biryani and Curry Kebab"
        },
        {
            "latitude": 1.3021796,
            "longitude": 103.8503724050784,
            "name": "The Ramen House - Short Street"
        },
        {
            "latitude": 1.30162038778031,
            "longitude": 103.849376010399,
            "name": "Aladdin's Castle - Peace Centre"
        },
        {
            "latitude": 1.3018283956600327,
            "longitude": 103.84989285510923,
            "name": "La Jia Restaurant - Wilkie Edge"
        },
        {
            "latitude": 1.3084926281025275,
            "longitude": 103.8511276235341,
            "name": "Aromas of India - 60 Race Course Road"
        },
        {
            "latitude": 1.3038179,
            "longitude": 103.850128,
            "name": "Tittle Tattle - Ibis Budget Singapore Selegie"
        },
        {
            "latitude": 1.30943,
            "longitude": 103.85492,
            "name": "Drc Restaurant Pte Ltd - Desker Road"
        },
        {
            "latitude": 1.3023811649397032,
            "longitude": 103.8523591177667,
            "name": "Uncle Siam Thai Bistro - Burlington Square"
        },
        {
            "latitude": 1.3085954932152417,
            "longitude": 103.85388177209852,
            "name": "Palaniappa Chettinad Restaurant - Wellness Building \ud83c\udfcd"
        },
        {
            "latitude": 1.3025290033047698,
            "longitude": 103.85255205076699,
            "name": "Hao Lai Wu Mala Xiang Guo - Burlington Square"
        },
        {
            "latitude": 1.305049324,
            "longitude": 103.8534169,
            "name": "Dheen Restaurant - Dunlop Street"
        },
        {
            "latitude": 1.300699,
            "longitude": 103.851820564558,
            "name": "Wan Wan Thai Cafe - Bencoolen Street"
        },
        {
            "latitude": 1.302240927375814,
            "longitude": 103.84931137052932,
            "name": "La Jia BBQ  - Wilkie Edge"
        },
        {
            "latitude": 1.308661731,
            "longitude": 103.8538563,
            "name": "Palaniyappa Northern Indian Cuisine - Wellness Building \ud83c\udfcd"
        },
        {
            "latitude": 1.306309313,
            "longitude": 103.8556907,
            "name": "SCM Mart - Jalan Besar\ud83c\udfcd"
        },
        {
            "latitude": 1.3022365,
            "longitude": 103.8529385,
            "name": "Burger King - Burlington Square"
        },
        {
            "latitude": 1.30837,
            "longitude": 103.85106,
            "name": "The Banana Leaf Apolo - Race Course Road"
        },
        {
            "latitude": 1.3099283,
            "longitude": 103.85211945,
            "name": "Muthu's Curry - Race Course"
        },
        {
            "latitude": 1.3049837,
            "longitude": 103.8536234,
            "name": "Bismillah Biryani - Dunlop Street"
        },
        {
            "latitude": 1.3028743,
            "longitude": 103.85278338571428,
            "name": "Subway - Sim Lim Square"
        },
        {
            "latitude": 1.308959973567916,
            "longitude": 103.85135531448405,
            "name": "Anjappar Restaurant - Race Course Road"
        },
        {
            "latitude": 1.3005244,
            "longitude": 103.85208186666667,
            "name": "Hangawi Korean Food - Fortune Centre"
        },
        {
            "latitude": 1.30628341,
            "longitude": 103.8564881,
            "name": "Homely Vietnam Pho - Kelantan Lane"
        },
        {
            "latitude": 1.3020510016788962,
            "longitude": 103.85028163225773,
            "name": "Rochor Original Beancurd  - Short Street"
        },
        {
            "latitude": 1.3065149,
            "longitude": 103.8526057,
            "name": "Gokul Raas Vegetarian - Upper Dickson Road"
        },
        {
            "latitude": 1.300517,
            "longitude": 103.8520686375,
            "name": "La-Teh - Fortune Centre"
        },
        {
            "latitude": 1.3088587,
            "longitude": 103.8513014,
            "name": "Machan's Kitchen - 74 Race Course Road"
        },
        {
            "latitude": 1.3056490997876435,
            "longitude": 103.85286825157124,
            "name": "Alankar Restaurant - Dunlop Street"
        },
        {
            "latitude": 1.3030999,
            "longitude": 103.8530261,
            "name": "3 Meals A Day  - Sim Lim Square"
        },
        {
            "latitude": 1.300593,
            "longitude": 103.851633,
            "name": "25 Degrees Burgers & Liquor Bar - Hotel G"
        },
        {
            "latitude": 1.303389058,
            "longitude": 103.8533197,
            "name": "Jia Xiang Mala Hotpot - Sim Lim Square"
        },
        {
            "latitude": 1.30969402,
            "longitude": 103.85198633636364,
            "name": "Gayatri Restaurant - Race Course Road"
        },
        {
            "latitude": 1.3080277,
            "longitude": 103.8506722,
            "name": "Jaggi's Northern Indian Cuisine - 36 Race Course Road"
        },
        {
            "latitude": 1.30551,
            "longitude": 103.85245,
            "name": "Meatsmith Xpress - Little India"
        },
        {
            "latitude": 1.30603,
            "longitude": 103.8522,
            "name": "Sakunthala's Restaurant - Dunlop Street"
        },
        {
            "latitude": 1.3081544,
            "longitude": 103.85244858264922,
            "name": "Kailash Parbat - Belilios"
        },
        {
            "latitude": 1.306066852692549,
            "longitude": 103.8515496,
            "name": "Ananda Bhavan - Serangoon Road"
        },
        {
            "latitude": 1.3086574,
            "longitude": 103.85116057,
            "name": "Sakunthala Food Palace - Race Course Rd"
        },
        {
            "latitude": 1.30503007626494,
            "longitude": 103.854592692873,
            "name": "Kotuwa - Dickson Road"
        },
        {
            "latitude": 1.3064397718561558,
            "longitude": 103.85187096831346,
            "name": "Komala Vilas - Serangoon Road"
        },
        {
            "latitude": 1.3080586912601007,
            "longitude": 103.85409049011758,
            "name": "Mr Uncle & Aunty Kitchen - Norris Road"
        },
        {
            "latitude": 1.3020125895719656,
            "longitude": 103.84978474056697,
            "name": "Daebak Korean Restaurant - Wilkie Edge"
        },
        {
            "latitude": 1.3082126803158645,
            "longitude": 103.85080500000001,
            "name": "Tulasi - Race Course Road"
        },
        {
            "latitude": 1.30458709,
            "longitude": 103.84973610139555,
            "name": "Old Chang Kee - Mackenzie Road"
        },
        {
            "latitude": 1.3060396,
            "longitude": 103.85092853333333,
            "name": "Allauddin's Briyani - Tekka Market"
        },
        {
            "latitude": 1.3079745,
            "longitude": 103.85399461174319,
            "name": "Mr Biryani - Norris Road"
        },
        {
            "latitude": 1.30194,
            "longitude": 103.849691,
            "name": "Oh Some Bowls - Wilkie Edge"
        },
        {
            "latitude": 1.306529,
            "longitude": 103.852283,
            "name": "Komala's Restaurant - Upper Dickson Road"
        },
        {
            "latitude": 1.3031523,
            "longitude": 103.85316275,
            "name": "Taste Good Fish Soup - Rochor Canal Rd"
        },
        {
            "latitude": 1.3061465537782766,
            "longitude": 103.8507351910705,
            "name": "Tekka Market (Mart Mix & Match)"
        },
        {
            "latitude": 1.3078503349421708,
            "longitude": 103.8505589,
            "name": "Fifth Season Tangra Chinese - 28 Race Course Road"
        },
        {
            "latitude": 1.3027224,
            "longitude": 103.8521757,
            "name": "Feng Cha - Burlington Square"
        },
        {
            "latitude": 1.302715975,
            "longitude": 103.8530307625,
            "name": "Hotplate Korean Cuisine - Sim Lim Square"
        },
        {
            "latitude": 1.3081001,
            "longitude": 103.850755,
            "name": "Arunachala Bhavan - 40 Race Course Road"
        },
        {
            "latitude": 1.305121,
            "longitude": 103.851626,
            "name": "Starbucks - Tekka Place"
        },
        {
            "latitude": 1.302673,
            "longitude": 103.852138,
            "name": "Hao Lai Wu Steamboat & Bbq - Burlington Square"
        },
        {
            "latitude": 1.3069424,
            "longitude": 103.856234,
            "name": "Hand in Hand Beijing Restaurant - Jalan Besar"
        },
        {
            "latitude": 1.308851,
            "longitude": 103.855468,
            "name": "Swaad - The Art of Saatvik Food - Desker Road"
        },
        {
            "latitude": 1.30722625,
            "longitude": 103.85090764707869,
            "name": "Amaravati Indian Heritage Restaurant - Kerbau Road"
        },
        {
            "latitude": 1.3076446,
            "longitude": 103.85334,
            "name": "Shanthee's Curry Restaurant - 13 Veerasamy Road"
        },
        {
            "latitude": 1.3060259524499571,
            "longitude": 103.85039979334084,
            "name": "545 Whampoa Prawn Noodles - Zhujiao Centre (Tekka Market)"
        },
        {
            "latitude": 1.306898785,
            "longitude": 103.8499192,
            "name": "Handmade Carrot Cake - Zhujiao Centre (Tekka Market)"
        },
        {
            "latitude": 1.308132838184107,
            "longitude": 103.85305508705248,
            "name": "Khansama Tandoori Restaurant - Serangoon Road"
        },
        {
            "latitude": 1.308111,
            "longitude": 103.851255,
            "name": "Gandhi Restaurant - Chander Road"
        },
        {
            "latitude": 1.3050091772108943,
            "longitude": 103.85480909680194,
            "name": "Thien Long Vietnam Restaurant -  Jalan Besar"
        },
        {
            "latitude": 1.3021770664491947,
            "longitude": 103.84973713761616,
            "name": "EPIKebabs - Wilkie Edge"
        },
        {
            "latitude": 1.3081453269065837,
            "longitude": 103.85080245525555,
            "name": "Sri Kumbhakarna - Race Course Road"
        },
        {
            "latitude": 1.30824,
            "longitude": 103.85096,
            "name": "Three's A Crowd - Race Course Road"
        },
        {
            "latitude": 1.3065,
            "longitude": 103.85126,
            "name": "Madura's Vilas - Buffalo Road"
        },
        {
            "latitude": 1.302095,
            "longitude": 103.84874,
            "name": "Twenty Eight Cafe - Sophia Flats"
        },
        {
            "latitude": 1.30794974,
            "longitude": 103.8506229,
            "name": "Mustard Restaurant - Race Course Road"
        },
        {
            "latitude": 1.305174325,
            "longitude": 103.851195775,
            "name": "Ya Kun Kaya Toast - Tekka Place"
        },
        {
            "latitude": 1.3047,
            "longitude": 103.85391,
            "name": "Steep - Dunlop Street"
        },
        {
            "latitude": 1.305707,
            "longitude": 103.854943,
            "name": "Chendur Mini Mart - Veerasamy Road"
        },
        {
            "latitude": 1.3070305678534788,
            "longitude": 103.85294128357536,
            "name": "Shivsagar Trading - 20 Cuff Road"
        },
        {
            "latitude": 1.30653679730313,
            "longitude": 103.849697628879,
            "name": "MAB Minimart - Buffalo Road"
        },
        {
            "latitude": 1.301999,
            "longitude": 103.853241,
            "name": "May's Kafe - The Bencoolen"
        },
        {
            "latitude": 1.30711,
            "longitude": 103.85048,
            "name": "Ovi Eats and Treats - Buffalo Road [Islandwide Delivery]"
        },
        {
            "latitude": 1.3060176333333333,
            "longitude": 103.8515592,
            "name": "Sathish Trading & Enterprise - 56 Serangoon Road"
        },
        {
            "latitude": 1.3070933,
            "longitude": 103.8563644,
            "name": "Butter Studio - Jalan Besar "
        },
        {
            "latitude": 1.3083362,
            "longitude": 103.8509441,
            "name": "Kolkata Beckons - 52 Race Course Road"
        },
        {
            "latitude": 1.3007533333333332,
            "longitude": 103.8497481,
            "name": "Watsons - Parklane Shopping Mall"
        },
        {
            "latitude": 1.3028178,
            "longitude": 103.85302707058824,
            "name": "Broadway Food & Drinks - Sim Lim Square"
        },
        {
            "latitude": 1.30548,
            "longitude": 103.85465,
            "name": "Dim Sum Haus - Upper Weld Road"
        },
        {
            "latitude": 1.303024996,
            "longitude": 103.8498698,
            "name": "Golden Moments - Selegie Court\ud83c\udfcd"
        },
        {
            "latitude": 1.3061932323364545,
            "longitude": 103.85010075257975,
            "name": "Kamala - Buffalo Road"
        },
        {
            "latitude": 1.3062014999999998,
            "longitude": 103.8506315,
            "name": "Fruit House Tekka Market - Tekka Market #01-160"
        },
        {
            "latitude": 1.30723,
            "longitude": 103.85037,
            "name": "Ponni Indian Groceries - Buffalo Road"
        },
        {
            "latitude": 1.3062,
            "longitude": 103.85074985718873,
            "name": "G.V. Meat Distributors Wholesale & Retail - Tekka Market #01-145 [Islandwide Delivery]"
        },
        {
            "latitude": 1.3089751,
            "longitude": 103.8542156,
            "name": "Mumbai Grill - Rowell Road"
        },
        {
            "latitude": 1.306309313,
            "longitude": 103.8556907,
            "name": "C-Mart - Jalan Besar\ud83c\udfcd"
        },
        {
            "latitude": 1.3077063,
            "longitude": 103.850489985015,
            "name": "Delhi6 Restaurant - Race Course Road"
        },
        {
            "latitude": 1.3081984,
            "longitude": 103.8529702,
            "name": "Instant Alcohol Delivery - Serangoon Road\ud83c\udfcd"
        },
        {
            "latitude": 1.3059519795131385,
            "longitude": 103.8543142,
            "name": "Chettynad Curry Palace - Upper Weld Road"
        },
        {
            "latitude": 1.3084948126583937,
            "longitude": 103.85509106103402,
            "name": "Courtallam Border Rahmath Kadai - Rowell Road"
        },
        {
            "latitude": 1.3027614,
            "longitude": 103.85296915,
            "name": "Japanese Cuisine - Sim Lim Square"
        },
        {
            "latitude": 1.3047677,
            "longitude": 103.8538221,
            "name": "Chimichanga - Dunlop Street"
        },
        {
            "latitude": 1.30667,
            "longitude": 103.85082,
            "name": "Dao Xiang Congee - Zhujiao Centre (Tekka Market)"
        },
        {
            "latitude": 1.3103798399963666,
            "longitude": 103.8525009,
            "name": "New Madras Cafe - Race Course Road"
        },
        {
            "latitude": 1.3065022593302018,
            "longitude": 103.8507688752635,
            "name": "81 Sheng Yu - Tekka Market #01-14"
        },
        {
            "latitude": 1.3065892,
            "longitude": 103.8508201,
            "name": "Ming Fa Fishball - Tekka [Stall 304]"
        },
        {
            "latitude": 1.3044945339772198,
            "longitude": 103.85464251215313,
            "name": "Mannai Minimart - Jalan Besar"
        },
        {
            "latitude": 1.3064772,
            "longitude": 103.8523053,
            "name": "Lagnaa...Barefoot Dining - Upper Dickson Road"
        },
        {
            "latitude": 1.3086715,
            "longitude": 103.85370757121476,
            "name": "Mani Iyer Mess - Hindoo Road"
        },
        {
            "latitude": 1.3086715,
            "longitude": 103.85370757121476,
            "name": "Mani Iyer Mess - Hindoo Road"
        },
        {
            "latitude": 1.3055128689444757,
            "longitude": 103.8529222943061,
            "name": "Marmaris Restaurant - Dunlop Street"
        },
        {
            "latitude": 1.3086116333333333,
            "longitude": 103.8511283,
            "name": "Delhi Restaurant - 64 Race Course Road"
        },
        {
            "latitude": 1.3032302244121126,
            "longitude": 103.85332599399462,
            "name": "Boat Noodle Express - Sim Lim Square"
        },
        {
            "latitude": 1.300699,
            "longitude": 103.85182056455773,
            "name": "Aroy-Dee Thai Kitchen - Bencoolen Street"
        },
        {
            "latitude": 1.3028111500000001,
            "longitude": 103.8529392,
            "name": "Hundred Flavours Dessert - Sim Lim Square"
        },
        {
            "latitude": 1.3059303548590637,
            "longitude": 103.85075556666668,
            "name": "Syed Mee & Prata Place - Buffalo Road"
        },
        {
            "latitude": 1.3054731497467689,
            "longitude": 103.85218338225464,
            "name": "RW Selmor - Little India Arcade"
        },
        {
            "latitude": 1.3052691095256395,
            "longitude": 103.85256270584863,
            "name": "Tiffin Bhavan Restaurant - Little India Conservation Area"
        },
        {
            "latitude": 1.305735,
            "longitude": 103.8527233,
            "name": "Komalas Vegemart - Dunlop Street"
        },
        {
            "latitude": 1.303569942247923,
            "longitude": 103.84999149162134,
            "name": "Kemono Healthy Japanese Roast Chicken - Selegie Road"
        },
        {
            "latitude": 1.303389058,
            "longitude": 103.8533197,
            "name": "Bedok Corner Fried Hokkien Prawn Mee (Sim Lim) - Sim Lim Square"
        },
        {
            "latitude": 1.300530842857143,
            "longitude": 103.8520805,
            "name": "Pine Tree Cafe - Fortune Centre"
        },
        {
            "latitude": 1.30221,
            "longitude": 103.8525,
            "name": "Songtan Army Stew - Burlington Square"
        },
        {
            "latitude": 1.309947,
            "longitude": 103.852375,
            "name": "Master Briyani @ Race Course Road"
        },
        {
            "latitude": 1.3092334197620017,
            "longitude": 103.85426612551402,
            "name": "Indline North Indian Restaurant - Rowell Road"
        },
        {
            "latitude": 1.3063984,
            "longitude": 103.85339534080597,
            "name": "Mother's Restaurant - Upper Weld Road"
        },
        {
            "latitude": 1.3096785,
            "longitude": 103.85453095,
            "name": "Indian Temptation Pte. Limited - Lembu Road"
        },
        {
            "latitude": 1.30062,
            "longitude": 103.85061,
            "name": "Parklane Zha Yun Tun Mee House - Sunshine Plaza"
        },
        {
            "latitude": 1.300933768798755,
            "longitude": 103.8532953,
            "name": "Kwan Im Vegetarian Restaurant - South East Asia Hotel"
        },
        {
            "latitude": 1.3104120955963205,
            "longitude": 103.8538211,
            "name": "Bar B Q Tonight - 10 Roberts Lane"
        },
        {
            "latitude": 1.3063622,
            "longitude": 103.8506605,
            "name": "The Crab Company - Tekka Market #01-4-/41/42/43 [Islandwide Delivery]"
        },
        {
            "latitude": 1.3041735,
            "longitude": 103.8506491,
            "name": "Shish Mahal Restaurant"
        },
        {
            "latitude": 1.30947,
            "longitude": 103.85423,
            "name": "Fakruddin Restaurant - Desker Road"
        },
        {
            "latitude": 1.3033626,
            "longitude": 103.8503026,
            "name": "Lao Si Chuan Restaurant - Selegie House"
        },
        {
            "latitude": 1.3085045,
            "longitude": 103.8517645,
            "name": "Gurkha Palace - Chander Road"
        },
        {
            "latitude": 1.30647242,
            "longitude": 103.8472061,
            "name": "Meme Bistro Bar - Mackenzie Road"
        },
        {
            "latitude": 1.301982459,
            "longitude": 103.8532286,
            "name": "OC Mai - The Bencoolen"
        },
        {
            "latitude": 1.30917,
            "longitude": 103.85425,
            "name": "Nandini Restaurant - Rowell Road"
        },
        {
            "latitude": 1.305224,
            "longitude": 103.851284,
            "name": "Bacos - Tekka Place"
        },
        {
            "latitude": 1.30113,
            "longitude": 103.851634,
            "name": "Ginett Restaurant & Wine Bar - Hotel G"
        },
        {
            "latitude": 1.3007532769245054,
            "longitude": 103.85206492556169,
            "name": "Create Healthy Lifestyles - Fortune Centre"
        },
        {
            "latitude": 1.3080099557322018,
            "longitude": 103.85078057067575,
            "name": "INDIAN EXPRESS A Brand of The Song Of India - Race Course Road"
        },
        {
            "latitude": 1.3084052,
            "longitude": 103.851652,
            "name": "Swaadhisht - 47 Chander Road"
        },
        {
            "latitude": 1.30820318490115,
            "longitude": 103.853069154596,
            "name": "Warong Wanisha - Serangoon Road"
        },
        {
            "latitude": 1.3080717408295133,
            "longitude": 103.85568198757605,
            "name": "Wall Mart - Rowell Road"
        },
        {
            "latitude": 1.30519097346772,
            "longitude": 103.851640029253,
            "name": "Ice On You (Eatbox) - Tekka Place"
        },
        {
            "latitude": 1.3066374,
            "longitude": 103.85080218957303,
            "name": "Karthika Supermarket - Buffalo Road"
        },
        {
            "latitude": 1.30533,
            "longitude": 103.85264,
            "name": "Kubes Bistro - Campbell Lane"
        },
        {
            "latitude": 1.30653679730313,
            "longitude": 103.849697628879,
            "name": "Fairway Mart - Buffalo Road"
        },
        {
            "latitude": 1.3069928963550028,
            "longitude": 103.8527543,
            "name": "Bhai Biriyani - Cuff Road"
        },
        {
            "latitude": 1.304464,
            "longitude": 103.84989642,
            "name": "New Cameroon Seafood Restaurant - Mackenzie Road"
        },
        {
            "latitude": 1.3044711,
            "longitude": 103.84971939245432,
            "name": "Selera Restaurant - City Inn Mackenzie"
        },
        {
            "latitude": 1.30446,
            "longitude": 103.853077,
            "name": "Nanyang Culinary Club - Perak Road"
        },
        {
            "latitude": 1.3069474250000002,
            "longitude": 103.8534794,
            "name": "Greenleaf Cafe - Cuff Road"
        },
        {
            "latitude": 1.30841,
            "longitude": 103.85136,
            "name": "Chettinadu New Restaurant - Chander Road"
        },
        {
            "latitude": 1.305684125,
            "longitude": 103.8548039,
            "name": "Saral - Upper Weld Road"
        },
        {
            "latitude": 1.30888,
            "longitude": 103.85412,
            "name": "Salt Bay Restoro - Rowell Road"
        },
        {
            "latitude": 1.305859,
            "longitude": 103.856414,
            "name": "Ms Durian - 11 Kelantan Road"
        },
        {
            "latitude": 1.30062,
            "longitude": 103.85061,
            "name": "Teng Bespoke - Sunshine Plaza"
        },
        {
            "latitude": 1.31064,
            "longitude": 103.85306,
            "name": "Bashundhara Restaurant - Kinta Road"
        },
        {
            "latitude": 1.3059383,
            "longitude": 103.8507334,
            "name": "Delhi Lahori - Buffalo Road"
        },
        {
            "latitude": 1.306951074,
            "longitude": 103.8499465,
            "name": "Yakader Muslim Store - Tekka Market"
        },
        {
            "latitude": 1.308461124,
            "longitude": 103.8515441,
            "name": "Sri Aachi Aappakadai - Chander Road"
        },
        {
            "latitude": 1.304557,
            "longitude": 103.854048,
            "name": "The Malayan Council - Dunlop Street"
        },
        {
            "latitude": 1.30250761842549,
            "longitude": 103.853502945679,
            "name": "Coffee Hive - OG Albert Complex"
        },
        {
            "latitude": 1.30578,
            "longitude": 103.855537,
            "name": "Ramabear Thai Mart - Jalan Besar"
        },
        {
            "latitude": 1.30162038778031,
            "longitude": 103.849376010399,
            "name": "WRAP UP - A Fusion Kebab Burrito Arabic Restaurant - Peace Centre"
        },
        {
            "latitude": 1.307953,
            "longitude": 103.855993,
            "name": "Slurp Your Oysters - Rowell Road"
        },
        {
            "latitude": 1.300521334285714,
            "longitude": 103.85200660000001,
            "name": "Yatkayan Dessert - Fortune Centre"
        },
        {
            "latitude": 1.3060091,
            "longitude": 103.85090110000002,
            "name": "Sky Lab Cooked Food 227 - Buffalo Road #01-227"
        },
        {
            "latitude": 1.3058939,
            "longitude": 103.85057090000001,
            "name": "Kk303 Sandwich Stall - Buffalo Road [Stall 303]"
        },
        {
            "latitude": 1.3058939,
            "longitude": 103.85057090000001,
            "name": "Kk303 Sandwich Stall - Buffalo Road [Stall 303]"
        },
        {
            "latitude": 1.306275,
            "longitude": 103.85067475634362,
            "name": "Lim\u2019s Coconut & Sundry Products - Tekka Market #01-188/189"
        },
        {
            "latitude": 1.30604,
            "longitude": 103.85219,
            "name": "A1 Cheap & Best Store - Dunlop Street"
        },
        {
            "latitude": 1.306499324,
            "longitude": 103.8519769,
            "name": "Nalan - Serangoon Road"
        },
        {
            "latitude": 1.3064485,
            "longitude": 103.8505476,
            "name": "Lyhseafood - Tekka Market #01-50"
        },
        {
            "latitude": 1.3056463633986526,
            "longitude": 103.8529446,
            "name": "Om Murugan Vilas Idly - Dunlop Street"
        },
        {
            "latitude": 1.3040518,
            "longitude": 103.85086363,
            "name": "Mangiamo - Village Hotel Albert Court"
        },
        {
            "latitude": 1.306898785,
            "longitude": 103.8499192,
            "name": "Haniffa - Tekka Market"
        },
        {
            "latitude": 1.306951074,
            "longitude": 103.8499465,
            "name": "Pakir Mohd Delights - Tekka Market"
        },
        {
            "latitude": 1.305358775,
            "longitude": 103.8533418,
            "name": "Udhayam Restaurant - Little India Conservation Area"
        },
        {
            "latitude": 1.306,
            "longitude": 103.85425,
            "name": "Heritageone - Upper Weld Road"
        },
        {
            "latitude": 1.308673,
            "longitude": 103.851785,
            "name": "New Everest Kitchen - Chander Road"
        },
        {
            "latitude": 1.303372517,
            "longitude": 103.8533073,
            "name": "Wok Off! - Sim Lim Square"
        },
        {
            "latitude": 1.3044,
            "longitude": 103.85419,
            "name": "The Wired Monkey SG - Dunlop Street"
        },
        {
            "latitude": 1.3030950333333333,
            "longitude": 103.8532724,
            "name": "Soi Aroy - Sim Lim Square"
        },
        {
            "latitude": 1.3028211666666667,
            "longitude": 103.85288919909091,
            "name": "Fish & More - Sim Lim Square"
        },
        {
            "latitude": 1.301959317,
            "longitude": 103.8492618,
            "name": "Masoud Falafel & Hummus - Wilkie Edge"
        },
        {
            "latitude": 1.301938,
            "longitude": 103.84921,
            "name": "Libertea - Wilkie Edge"
        },
        {
            "latitude": 1.30823,
            "longitude": 103.85569,
            "name": "Main Street Commissary - Rowell Road"
        },
        {
            "latitude": 1.3052668940513548,
            "longitude": 103.85131880827586,
            "name": "Veggie Lovers - Tekka Place Shopping Center"
        },
        {
            "latitude": 1.30519097346772,
            "longitude": 103.851640029253,
            "name": "Flash Coffee - Tekka Place"
        },
        {
            "latitude": 1.3060386166666667,
            "longitude": 103.85090308571428,
            "name": "Sky Lab Cooked Food 228 - Buffalo Road #01-228"
        },
        {
            "latitude": 1.305224,
            "longitude": 103.851284,
            "name": "Little Easy Bar & Bistro - Tekka Place"
        },
        {
            "latitude": 1.305224,
            "longitude": 103.851284,
            "name": "Little Easy Bar & Bistro - Tekka Place"
        },
        {
            "latitude": 1.3060044,
            "longitude": 103.850857025,
            "name": "The Berkat Stall - Buffalo Road [Stall 226]"
        },
        {
            "latitude": 1.30519097346772,
            "longitude": 103.851640029253,
            "name": "IncrediBowl"
        },
        {
            "latitude": 1.30519097346772,
            "longitude": 103.851640029253,
            "name": "MLTZ Gourmet Chocolates - Tekka Place"
        },
        {
            "latitude": 1.305158724,
            "longitude": 103.8516207,
            "name": "Tian Xuan Noodles - Tekka Place"
        },
        {
            "latitude": 1.30622216,
            "longitude": 103.8508076,
            "name": "Dollah Milah Tekka Chicken Stall - Tekka Market #01-142"
        },
        {
            "latitude": 1.30603205,
            "longitude": 103.8506715,
            "name": "Ar Rahman Cafe - Tekka Market"
        },
        {
            "latitude": 1.30603205,
            "longitude": 103.8506715,
            "name": "Ar Rahman Cafe - Tekka Market"
        },
        {
            "latitude": 1.3058939,
            "longitude": 103.85057090000001,
            "name": "Tekka Food Centre"
        },
        {
            "latitude": 1.3058727,
            "longitude": 103.85053020285714,
            "name": "Fu Xiang - Tekka Market"
        },
        {
            "latitude": 1.3050849,
            "longitude": 103.8519378,
            "name": "Azmi Restaurant Pte. Ltd. - Dalhousie Lane"
        },
        {
            "latitude": 1.3063632,
            "longitude": 103.8506363,
            "name": "Adam Lamb & Crabs - Tekka Market #01-122"
        },
        {
            "latitude": 1.3049461,
            "longitude": 103.8508675,
            "name": "Taste Restaurant - Bencoolen Street"
        },
        {
            "latitude": 1.306208,
            "longitude": 103.850495,
            "name": "Jasmine Pork Rib Prawn Noodle - Tekka Market"
        },
        {
            "latitude": 1.3050554375901473,
            "longitude": 103.8520592,
            "name": "Premaas Cuisine - Dalhousie Lane"
        },
        {
            "latitude": 1.3053863691961596,
            "longitude": 103.85243010210212,
            "name": "Chennai Arya Restaurants - Campbell Lane"
        },
        {
            "latitude": 1.3048,
            "longitude": 103.8525,
            "name": "Buzzed Burgers & Shakes - Little India Conservation Area"
        },
        {
            "latitude": 1.30707,
            "longitude": 103.85053,
            "name": "Bake With Yen - Tekka Centre"
        },
        {
            "latitude": 1.307226918,
            "longitude": 103.8506504,
            "name": "First Fidelity - Kerbau Road"
        },
        {
            "latitude": 1.307128,
            "longitude": 103.85036,
            "name": "68 PK Fish Supplier - Zhujiao Centre (Tekka Market), #01-72"
        },
        {
            "latitude": 1.30683,
            "longitude": 103.85268,
            "name": "Bhai Biriyani & Cafe - Cuff Road"
        },
        {
            "latitude": 1.305425,
            "longitude": 103.853081,
            "name": "Don Bar & Bistro - Dunlop Street"
        },
        {
            "latitude": 1.306898785,
            "longitude": 103.8499192,
            "name": "Generation Coffee - Zhujiao Centre (Tekka Market)"
        },
        {
            "latitude": 1.306898785,
            "longitude": 103.8499192,
            "name": "Zamela & Family Chicken Suppiler - Zhujiao Centre (Tekka Market)"
        },
        {
            "latitude": 1.3070529,
            "longitude": 103.85261519543248,
            "name": "Santhi Vilas Restaurant - Cuff Road"
        },
        {
            "latitude": 1.306926263,
            "longitude": 103.8499217,
            "name": "Haji MN Shahul Hameed Marketing - Zhujiao Centre (Tekka Market)"
        },
        {
            "latitude": 1.306951074,
            "longitude": 103.8499465,
            "name": "Rb Dum Briyani - Tekka Market"
        },
        {
            "latitude": 1.304963,
            "longitude": 103.853034,
            "name": "Daddy's - The Great Madras"
        },
        {
            "latitude": 1.307,
            "longitude": 103.8528281,
            "name": "Ambur Briyani - Cuff Road"
        },
        {
            "latitude": 1.3052827,
            "longitude": 103.8532344,
            "name": "Mother's Taste Asian Restaurant - Dunlop Street"
        },
        {
            "latitude": 1.3065451981282368,
            "longitude": 103.85335031306614,
            "name": "The Singapura Club - Upper Weld Road"
        },
        {
            "latitude": 1.3051037923076922,
            "longitude": 103.8534219,
            "name": "Countryside Cafe - Dunlop Street"
        },
        {
            "latitude": 1.3069541925041157,
            "longitude": 103.8531721,
            "name": "Muthiah Restaurant Pte Ltd - Cuff Road"
        },
        {
            "latitude": 1.3080670561773928,
            "longitude": 103.85072570302918,
            "name": "Little India Mix & Match"
        },
        {
            "latitude": 1.304875325870975,
            "longitude": 103.85362602654367,
            "name": "RedDot Kitchen - Dunlop Street"
        },
        {
            "latitude": 1.3032978,
            "longitude": 103.8512121,
            "name": "Qi Ji Eating House - Selegie House"
        },
        {
            "latitude": 1.304803014,
            "longitude": 103.853605,
            "name": "Aladdin Kebabs Wraps Grill - Sandpiper Hotel"
        },
        {
            "latitude": 1.3082547,
            "longitude": 103.85089744999999,
            "name": "Eat Ripe Products - Race Course Road"
        },
        {
            "latitude": 1.3082547,
            "longitude": 103.85089744999999,
            "name": "Eat Ripe Products - Race Course Road"
        },
        {
            "latitude": 1.3053366666666666,
            "longitude": 103.85385142499999,
            "name": "Al-Bismi Kitchen - Dickson Road"
        },
        {
            "latitude": 1.303591,
            "longitude": 103.849941,
            "name": "Kin Hoi Thai Food - Selegie Road"
        },
        {
            "latitude": 1.303591,
            "longitude": 103.849941,
            "name": "Kin Hoi Famous Thai Food - Selegie Road"
        },
        {
            "latitude": 1.30796,
            "longitude": 103.85295,
            "name": "Yata Store - Serangoon Road"
        },
        {
            "latitude": 1.303372517,
            "longitude": 103.8533073,
            "name": "Rice Is Life - Sim Lim Square"
        },
        {
            "latitude": 1.3031261298422416,
            "longitude": 103.84995706768328,
            "name": "Princess Apinya - Selegie Road"
        },
        {
            "latitude": 1.308046,
            "longitude": 103.853252,
            "name": "My Place - Norris Road"
        },
        {
            "latitude": 1.3082207,
            "longitude": 103.85306475,
            "name": "Chennai Dosa-Dosa Outlet - Serangoon Road"
        },
        {
            "latitude": 1.303389058,
            "longitude": 103.8533197,
            "name": "Soho Bar - Sim Lim Square"
        },
        {
            "latitude": 1.303389058,
            "longitude": 103.8533197,
            "name": "Vivi Vietnamese Cuisine - Sim Lim Square"
        },
        {
            "latitude": 1.3030894082591629,
            "longitude": 103.85291895419145,
            "name": "Castro's Western Grill - Sim Lim Square"
        },
        {
            "latitude": 1.30444,
            "longitude": 103.85416,
            "name": "JusKitchen - Dunlop Street"
        },
        {
            "latitude": 1.302992011111111,
            "longitude": 103.85303412592593,
            "name": "Oscar Japanese Food - Sim Lim Square"
        },
        {
            "latitude": 1.30413,
            "longitude": 103.85426,
            "name": "I Want Eat - Jalan Besar"
        },
        {
            "latitude": 1.30413,
            "longitude": 103.85426,
            "name": "I Want Eat - Jalan Besar"
        },
        {
            "latitude": 1.30821,
            "longitude": 103.85363,
            "name": "Sharoq Khan Restaurant - Norris Road"
        },
        {
            "latitude": 1.302782,
            "longitude": 103.8529739,
            "name": "Miniwok - Sim Lim Square"
        },
        {
            "latitude": 1.3080072295334668,
            "longitude": 103.85395215983313,
            "name": "Sara's Family Restaurant - Norris Road"
        },
        {
            "latitude": 1.3046535652645,
            "longitude": 103.854781223597,
            "name": "Hainan Chicken Rice Ball - Shing Boon Hwa Food Centre"
        },
        {
            "latitude": 1.307923,
            "longitude": 103.854251,
            "name": "All India Supermart - Norris Road"
        },
        {
            "latitude": 1.30477,
            "longitude": 103.8549,
            "name": "The Fat Mammoth - Jalan Besar"
        },
        {
            "latitude": 1.30226903593349,
            "longitude": 103.852837492595,
            "name": "Yummi House - Burlington Square"
        },
        {
            "latitude": 1.302362889,
            "longitude": 103.8531379,
            "name": "Nightshift Bistro & Bar - Burlington Square"
        },
        {
            "latitude": 1.302352,
            "longitude": 103.853121,
            "name": "Lao Ban Niang - Burlington Square"
        },
        {
            "latitude": 1.302491078,
            "longitude": 103.8534905,
            "name": "Bhutan Natural - OG Albert Complex"
        },
        {
            "latitude": 1.3034009146716439,
            "longitude": 103.84802814281532,
            "name": "Kult Kafe - Upper Wilkie Road"
        },
        {
            "latitude": 1.3064270818181818,
            "longitude": 103.84729,
            "name": "S Twenty 1 - Mackenzie Road"
        },
        {
            "latitude": 1.307721595166953,
            "longitude": 103.85497324249593,
            "name": "Fruit Inn Pte Ltd - Rowell Road"
        },
        {
            "latitude": 1.30578,
            "longitude": 103.855537,
            "name": "59 Recipes - Berseh Food Centre"
        },
        {
            "latitude": 1.301999,
            "longitude": 103.853241,
            "name": "Original Taste Foods - The Bencoolen"
        },
        {
            "latitude": 1.3020656,
            "longitude": 103.85353776583712,
            "name": "Xing Hua Restaurant - The Bencoolen"
        },
        {
            "latitude": 1.308973,
            "longitude": 103.854307,
            "name": "Indline - Rowell Road"
        },
        {
            "latitude": 1.30633045,
            "longitude": 103.85577109079699,
            "name": "C-Mart - Jalan Besar"
        },
        {
            "latitude": 1.30849,
            "longitude": 103.855057,
            "name": "Well Played Cafe - Rowell Road"
        },
        {
            "latitude": 1.3013272,
            "longitude": 103.8497202,
            "name": "YI ZI WEI - Peace Centre"
        },
        {
            "latitude": 1.3071807,
            "longitude": 103.84679172387582,
            "name": "Owls Brew - Mackenzie Road"
        },
        {
            "latitude": 1.306379439623595,
            "longitude": 103.85614491362251,
            "name": "Obsessive Chocolate Desire -  Jalan Besar"
        },
        {
            "latitude": 1.3008934122608158,
            "longitude": 103.85181868811256,
            "name": "Rui Xiang Restaurant - Bencoolen Street"
        },
        {
            "latitude": 1.3080229,
            "longitude": 103.8556653,
            "name": "Chilli & Pepper - Rowell Road"
        },
        {
            "latitude": 1.3068038,
            "longitude": 103.8562328,
            "name": "Kushiboy - Jalan Besar"
        },
        {
            "latitude": 1.3015984,
            "longitude": 103.85429875,
            "name": "Guo Chang Mala Hotpot - Fu Lu Shou Complex"
        },
        {
            "latitude": 1.3062403,
            "longitude": 103.856523,
            "name": "S Hammeed - Kelantan Lane"
        },
        {
            "latitude": 1.30056075,
            "longitude": 103.8506616614905,
            "name": "Steakville - Sunshine Plaza"
        },
        {
            "latitude": 1.30052868,
            "longitude": 103.8520453,
            "name": "The Asia 2019 - Fortune Centre"
        },
        {
            "latitude": 1.3005037,
            "longitude": 103.850773,
            "name": "Deli's Kitchen - Bencoolen"
        }
    ]
}
